…
A number of studies have researched what influences a baby's birthweight. From my experience with the literature I am selecting: - ppbmi = mother's pre pregnancy bmi (pounds) - gaweeks = gestational age (weeks) - smoken = average number of cigarettes smoked per day during pregnancy

A mother's pre pregnancy bmi has been shown to incease a babys birthweight by 37 grams for every 1 unit increase in bmi. Baby's meet milestones for development and weight at certain ages of gestation, it's age at birth will be related to birth weight. Smoking has also been shown to affect babies development which will affect the birth weight.

**Clean data for linear regressions.**

``` r
clean_birth = raw_birth %>% 
  select(blength, bwt, bhead, babysex, ppbmi, gaweeks, smoken) %>% 
  mutate(babysex = as.factor(babysex))

na.omit(clean_birth)
```

    ## # A tibble: 4,342 x 7
    ##    blength   bwt bhead babysex ppbmi gaweeks smoken
    ##      <int> <int> <int> <fct>   <dbl>   <dbl>  <dbl>
    ##  1      51  3629    34 2        26.3    39.9      0
    ##  2      48  3062    34 1        21.3    25.9      0
    ##  3      50  3345    36 2        23.6    39.9      1
    ##  4      52  3062    34 1        21.8    40       10
    ##  5      52  3374    34 2        21.0    41.6      1
    ##  6      52  3374    33 1        18.6    40.7      0
    ##  7      46  2523    33 2        14.3    40.3      0
    ##  8      49  2778    33 2        21.8    37.4      0
    ##  9      52  3515    36 1        19.9    40.3      0
    ## 10      50  3459    33 1        24.9    40.7      4
    ## # ... with 4,332 more rows
…
